﻿{
  "aPPerTurn": 3,
  "cardsInDeckNames": [ "basic1dmgranged", "basic1dmgranged", "basic1dmgranged", "basic1dmgranged", "basic1dmgranged", "basic2dmgranged", "basic2dmgranged", "basic1teleport" ],
  "maxHP": 1,
  "money": 1,
  "name": "원딜러",
  "startingHandSize": 2,
  "unitImageFileName" : "Ranged1",
  "yCalibration" : 0.1,
  "aiFunctionName" : "BasicRanged"
}