{
  "aPPerTurn": 5, 
  "aiFunctionName": "Zas", 
  "cardsInDeckNames": [
    "summonghoul", 
    "summonghoul", 
    "summonzombie", 
    "summonzombie", 
    "summonzombie", 
    "veryweakattack", 
    "veryweakattack", 
    "veryweakattack", 
    "veryweakattack"
  ], 
  "maxHP": 10, 
  "money": 10, 
  "name": "부두술사 자스", 
  "startingHandSize": 3, 
  "unitImageFileName": "Zenta"
}