{
  "aPPerTurn": 4, 
  "aiFunctionName": "BasicMelee", 
  "cardsInDeckNames": [
    "basic2dmgmelee", 
    "basic1dmgmelee", 
    "basic1dmgmelee", 
    "basic1dmgmelee", 
    "basic1dmgmelee", 
    "basic1teleport"
  ], 
  "maxHP": 3, 
  "money": 4, 
  "name": "돌격병", 
  "startingHandSize": 2, 
  "unitImageFileName": "Human_Leeroy_Modified"
}