{
  "cardClass": 1, 
  "cardImageFileName": "Card", 
  "cost": 1, 
  "customAreaFunctionName": "Normal", 
  "description": "적 하나에게 피해를 1씩 2번 준다.", 
  "effectFunctionName": "DealDamageMulti", 
  "effectParam1": 1, 
  "effectParam2": 2, 
  "hasTarget": true, 
  "name": "(구)난타", 
  "range": 1, 
  "rarity": 1, 
  "targetConditions": 16, 
  "visualEffectFunctionName": "NoVisualEffect"
}