{
  "cardClass": 9, 
  "cardImageFileName": "Card", 
  "cost": 1, 
  "description": "핏구덩이의 옆 랜덤한 위치에 흡혈충을 소환한다.", 
  "hasTarget": false, 
  "name": "흡혈충 부화", 
  "visualEffectFunctionName": "NoVisualEffect"
}