{
  "cardClass": 9, 
  "cardImageFileName": "Card_Gray_Base_Fencing", 
  "cost": 1, 
  "customAreaFunctionName": "Normal", 
  "description": "피해를 1 준다.", 
  "effectFunctionName": "DealDamage", 
  "effectParam1": 1, 
  "hasTarget": true, 
  "name": "미미한 저항", 
  "range": 1, 
  "targetConditions": 16, 
  "visualEffectFunctionName": "Slash"
}