{
  "cardClass": 9, 
  "cardImageFileName": "Card_Gray_Base_Sprint", 
  "cost": 3, 
  "customAreaFunctionName": "Normal", 
  "description": "피해를 3 준다.", 
  "effectFunctionName": "DealDamage", 
  "effectParam1": 3, 
  "hasTarget": true, 
  "name": "맹렬한 돌진", 
  "range": 1, 
  "targetConditions": 16, 
  "visualEffectFunctionName": "Slash"
}