{
  "cardClass": 2, 
  "cardImageFileName": "Card", 
  "cost": 2, 
  "description": "체력 1의 미끼를 설치한다.\n적들은 미끼를 우선적으로 공격한다.", 
  "effectFunctionName": "*", 
  "effectParam1": 1, 
  "hasTarget": true, 
  "name": "(미구현)미끼", 
  "range": 2, 
  "rarity": 1
}