{
  "cardClass": 4, 
  "cardImageFileName": "Card_White_Epic_Light2", 
  "cost": 5, 
  "description": "3턴 동안 다음 효과를 얻는다:\r\n최대 행동력이 3 감소한다.\r\n카드 피해가 2 증가한다.\r\n동일한 가호는 중복되지 않는다.", 
  "effectFunctionName": "Berserk", 
  "effectParam1": 2, 
  "effectParam2": 3, 
  "hasTarget": false, 
  "name": "광전사의 가호", 
  "rarity": 3, 
  "visualEffectFunctionName": "NoVisualEffect"
}