{
  "cardClass": 4, 
  "cardImageFileName": "Card_White_Rare_Light2", 
  "cost": 5, 
  "description": "3턴 동안 다음 효과를 얻는다:\r\n턴 종료시 방어도를 1 얻는다.\r\n동일한 가호는 중복되지 않는다.", 
  "effectFunctionName": "TurnEndShield", 
  "effectParam1": 1, 
  "effectParam2": 3, 
  "hasTarget": false, 
  "name": "대지의 가호", 
  "rarity": 2, 
  "visualEffectFunctionName": "NoVisualEffect"
}