{
  "cardClass": 4, 
  "cardImageFileName": "Card", 
  "cost": 999, 
  "description": "전투 종료까지 다음 효과를 얻는다: \r\n손패 크기를 2배로 늘린다. \r\n이 효과는 중첩되지 않는다.\r\n동일한 가호는 중복되지 않는다.", 
  "hasTarget": false, 
  "name": "(미구현)예지의 가호", 
  "rarity": 4
}