{
  "cardClass": 4, 
  "cardImageFileName": "Card_White_Rare_Light2", 
  "cost": 4, 
  "description": "2턴 동안 다음 효과를 얻는다:\r\n카드 피해가 1 증가한다.\r\n동일한 가호는 중복되지 않는다.", 
  "effectFunctionName": "Courage", 
  "effectParam1": 1, 
  "effectParam2": 2, 
  "hasTarget": false, 
  "name": "용맹의 가호", 
  "rarity": 2, 
  "visualEffectFunctionName": "NoVisualEffect"
}