{
  "cardClass": 4, 
  "cardImageFileName": "Card", 
  "cost": 7, 
  "description": "3턴 동안 다음 효과를 얻는다:\r\n각 턴에서 플레이어가 받는 첫번째 피해를 0으로 고정한다.\r\n동일한 가호는 중복되지 않는다.", 
  "hasTarget": false, 
  "name": "(미구현)성자의 가호", 
  "rarity": 4
}