{
  "cardClass": 1, 
  "cardImageFileName": "Card_Red_Common_Shield", 
  "cost": 2, 
  "description": "방어막을 1 얻는다.", 
  "effectFunctionName": "AddShield", 
  "effectParam1": 1, 
  "hasTarget": false, 
  "name": "막기", 
  "rarity": 1, 
  "visualEffectFunctionName": "NoVisualEffect"
}