{
  "cardClass": 2, 
  "cardClassTerms": 2, 
  "cardImageFileName": "Card_Green_Epic_Shotgun", 
  "cost": 4, 
  "description": "2턴 동안 탄환을 강화한다:\n‘사격술’ 계열의 피해를 1 증가시킨다.\n탄환의 강화는 중첩되지 않는다.", 
  "effectFunctionName": "BulletSlug", 
  "effectParam1": 1, 
  "effectParam2": 2, 
  "hasTarget": false, 
  "name": "탄환 변경 : 슬러그탄", 
  "rarity": 3, 
  "visualEffectFunctionName": "NoVisualEffect"
}