{
  "cardClass": 1, 
  "cardClassTerms": 1, 
  "cardImageFileName": "Card_Red_Common_Sword", 
  "cost": 1, 
  "description": "다음에 사용하는 카드가 ‘교전술’ 계열이면 그 카드의 피해를 1 증가시킨다.", 
  "effectFunctionName": "ClassAddition", 
  "effectParam1": 1, 
  "effectParam2": 1, 
  "hasTarget": false, 
  "name": "무기 강화", 
  "rarity": 1, 
  "visualEffectFunctionName": "NoVisualEffect"
}