{
  "cardClass": 8, 
  "cardImageFileName": "Card", 
  "cost": 1, 
  "description": "사용 시 효과 없음\n이 카드를 소유하고 있는 동안 내 턴당 행동력이 3 늘어난다.", 
  "effectFunctionName": "NoGameEffect", 
  "hasTarget": false, 
  "initializerFunctionName": "IdolofVitatlityInit", 
  "name": "활력의 우상", 
  "visualEffectFunctionName": "NoVisualEffect"
}