{
  "cardClass": 6, 
  "cardImageFileName": "Card_Blue_Common_Headache", 
  "cost": 0, 
  "description": "행동력을 1 얻는다.", 
  "effectFunctionName": "Boost", 
  "effectParam1": 1, 
  "hasTarget": false, 
  "name": "직감", 
  "rarity": 1, 
  "visualEffectFunctionName": "NoVisualEffect"
}