{
  "cardClass": 7, 
  "cardImageFileName": "Card", 
  "cost": 5, 
  "description": "다음 턴 동안 다음 효과를 얻는다:\n적에게 피해를 줄 때마다 재화를 1 얻는다.", 
  "effectFunctionName": "*", 
  "effectParam1": 1, 
  "hasTarget": false, 
  "name": "(미구현)미다스의 손", 
  "rarity": 2
}