{
  "cardClass": 7, 
  "cardImageFileName": "Card", 
  "cost": 0, 
  "description": "재화를 5 얻는다.\n이 카드를 제거한다.", 
  "effectFunctionName": "*", 
  "effectParam1": 5, 
  "hasTarget": false, 
  "name": "(미구현)선물", 
  "rarity": 1
}