{
  "cardClass": 2, 
  "cardImageFileName": "Card_Green_Rare_Soldier", 
  "cost": 3, 
  "customAreaFunctionName": "Normal", 
  "description": "피해를 1씩 2번 준다", 
  "effectFunctionName": "DealDamageMulti", 
  "effectParam1": 1, 
  "effectParam2": 2, 
  "hasTarget": true, 
  "name": "연사", 
  "range": 3, 
  "rarity": 2, 
  "targetConditions": 16, 
  "visualEffectFunctionName": "ShootRedBall"
}