{
  "cardClass": 0, 
  "cardImageFileName": "Card_Gray_Common_Sprint", 
  "cost": 1, 
  "customAreaFunctionName": "Normal", 
  "description": "1칸 이동한다.", 
  "effectFunctionName": "TeleportTo", 
  "hasTarget": true, 
  "name": "구르기", 
  "range": 1, 
  "rarity": 1, 
  "targetConditions": 1, 
  "visualEffectFunctionName": "MoveLinearly"
}