{
  "cardClass": 3, 
  "cardImageFileName": "Card_Brown_Common_Star", 
  "cost": 5, 
  "customAreaFunctionName": "WideAreaOne", 
  "description": "대상 칸 위의 적은 턴 종료시 피해를 1 받는다.\n3턴 동안 지속된다.", 
  "effectFunctionName": "FloorTurnEndDamage", 
  "effectParam1": 1, 
  "effectParam2": 3, 
  "floorImageFileName": "Shooting_Star", 
  "hasTarget": true, 
  "name": "별똥별", 
  "range": 3, 
  "rarity": 1, 
  "visualEffectFunctionName": "ShootRedBall"
}