{
  "cardSet": [
    "cut", 
    "rolling", 
    "retaliate", 
    "enrage", 
    "spellchain", 
    "bind", 
    "overwhelm", 
    "fear", 
    "swiftstrike", 
    "block", 
    "empowerweapon", 
    "shieldslam", 
    "warmingup", 
    "parrying", 
    "swing", 
    "dualblade", 
    "threateningRoar", 
    "assassinate", 
    "fury", 
    "crush", 
    "finalstrike", 
    "shot", 
    "pointblank", 
    "preheat", 
    "bigbang", 
    "flashbang", 
    "rapidshot", 
    "bulletslug", 
    "nonpointshot", 
    "crossfire", 
    "ignition", 
    "rockslide", 
    "root", 
    "infernohand", 
    "starfall", 
    "flamestrike", 
    "sandstorm", 
    "pyroblast", 
    "blessofwind", 
    "blessofcourage", 
    "blessofspirit", 
    "blessofearth", 
    "blessofberserk", 
    "strategy", 
    "tactics", 
    "notification", 
    "totalnumber", 
    "painendure", 
    "intuition", 
    "haste", 
    "pillage", 
    "pickpocket", 
    "moneypoison", 
    "earthquake", 
    "blessofwar"
  ]
}