{
  "cardSet": [
    "nonpointshot", 
    "crossfire", 
    "rockslide", 
    "starfall", 
    "flamestrike", 
    "pyroblast", 
    "blessofwind", 
    "blessofcourage", 
    "blessofspirit", 
    "blessofearth", 
    "blessofberserk", 
    "tactics", 
    "notification", 
    "totalnumber", 
    "painendure", 
    "intuition", 
    "haste", 
    "pillage", 
    "pickpocket", 
    "moneypoison"
  ]
}