{
  "cardSet": [
    "spellchain", 
    "empowerweapon", 
    "warmingup", 
    "assassinate", 
    "finalstrike", 
    "pointblank", 
    "preheat", 
    "bigbang", 
    "flashbang", 
    "bulletslug"
  ], 
  "itemSet": [
    "heartcrystal", 
    "manacrystal", 
    "cardcrystal"
  ], 
  "trinketSet": [
    "jjangdol", 
    "whitegem", 
    "bloodrose", 
    "holygreentreeamulet", 
    "coin", 
    "purifiedheart"
  ]
}