%YAML 1.1
%TAG !u! tag:unity3d.com,2011:
--- !u!78 &1
TagManager:
  serializedVersion: 2
  tags: []
  layers:
  - Default
  - TransparentFX
  - Ignore Raycast
  - 
  - Water
  - UI
  - 
  - 
  - 
  - 
  - 
  - 
  - 
  - 
  - 
  - 
  - 
  - 
  - 
  - 
  - 
  - 
  - 
  - 
  - 
  - 
  - 
  - 
  - 
  - 
  - 
  - 
  m_SortingLayers:
  - name: Default
    uniqueID: 0
    locked: 0
  - name: Cells
    uniqueID: 379522549
    locked: 0
  - name: NonUnits
    uniqueID: 1192648149
    locked: 0
  - name: Units
    uniqueID: 2668510817
    locked: 0
  - name: Cards
    uniqueID: 839175881
    locked: 0
  - name: VisualEffects
    uniqueID: 4195087477
    locked: 0
  - name: UI
    uniqueID: 267978793
    locked: 0
  - name: Popup
    uniqueID: 2619121657
    locked: 0
